{
  "physiologicalDataPlatform" : {
    "sprint" : "42",
    "date" : "2023/03/10",
    "version": "1.1.0"
  },
  "supportedClients" : {
    "kor" : {
      "gaia" : "4.2.3",
      "scheduler" : "1.6.1",
      "distro" : "3.3.1"
    },
    "mobileApps" : [
      {
        "platform" : "android",
        "healerR" : "3.9.4",
        "myHealer" : "3.3.4"
      },
      {
        "platform" : "ios",
        "healerR" : "3.8.1",
        "myHealer" : "3.2.0"
      }
    ],
    "hdesk" : "2.6.3",
    "hcloud" : "2.0.0",
    "myHealerC": "1.1.4"
  }
}
